{
  "name": "questionpapers",
  "integrations": {
    "gulp": {},
    "cordova": {}
  },
  "type": "ionic1",
  "watchPatterns": [
    "scss/**/*",
    "www/**/*",
    "!www/lib/**/*",
    "!www/**/*.map"
  ],
  "gulpStartupTasks": [
    "watch"
  ]
}